(module Package_DIP:DIP-8_W12.7mm_LongPads (layer F.Cu) (tedit 61D40E4B)
  (descr "8-lead though-hole mounted DIP package, row spacing 10.16 mm (400 mils), LongPads")
  (tags "THT DIP DIL PDIP 2.54mm 10.16mm 400mil LongPads")
  (fp_text reference REF** (at 6.35 -2.33) (layer F.SilkS)
    (effects (font (size 1 1) (thickness 0.15)))
  )
  (fp_text value DIP-8_W12.7mm_LongPads (at 5.08 9.95) (layer F.Fab)
    (effects (font (size 1 1) (thickness 0.15)))
  )
  (fp_text user %R (at 5.08 3.81) (layer F.Fab)
    (effects (font (size 1 1) (thickness 0.15)))
  )
  (fp_line (start 14.19 -1.55) (end -1.5 -1.55) (layer F.CrtYd) (width 0.05))
  (fp_line (start 14.19 9.15) (end 14.19 -1.55) (layer F.CrtYd) (width 0.05))
  (fp_line (start -1.5 9.15) (end 14.19 9.15) (layer F.CrtYd) (width 0.05))
  (fp_line (start -1.5 -1.55) (end -1.5 9.15) (layer F.CrtYd) (width 0.05))
  (fp_line (start 11.43 -1.33) (end 7.89 -1.33) (layer F.SilkS) (width 0.12))
  (fp_line (start 11.43 8.95) (end 11.43 -1.33) (layer F.SilkS) (width 0.12))
  (fp_line (start 1.845 8.89) (end 11.43 8.89) (layer F.SilkS) (width 0.12))
  (fp_line (start 1.845 -1.33) (end 1.845 8.95) (layer F.SilkS) (width 0.12))
  (fp_line (start 7.89 -1.33) (end 1.845 -1.33) (layer F.SilkS) (width 0.12))
  (fp_line (start 3.175 -0.27) (end 4.175 -1.27) (layer F.Fab) (width 0.1))
  (fp_line (start 1.905 8.89) (end 1.905 -0.27) (layer F.Fab) (width 0.1))
  (fp_line (start 8.255 8.89) (end 1.905 8.89) (layer F.Fab) (width 0.1))
  (fp_line (start 10.16 -1.27) (end 10.16 8.89) (layer F.Fab) (width 0.1))
  (fp_line (start 6.715 -1.27) (end 12.065 -1.27) (layer F.Fab) (width 0.1))
  (fp_arc (start 6.35 -1.33) (end 5.35 -1.33) (angle -180) (layer F.SilkS) (width 0.12))
  (pad 8 thru_hole oval (at 12.7 0) (size 2.4 1.6) (drill 0.8) (layers *.Cu *.Mask))
  (pad 4 thru_hole oval (at 0 7.62) (size 2.4 1.6) (drill 0.8) (layers *.Cu *.Mask))
  (pad 7 thru_hole oval (at 12.7 2.54) (size 2.4 1.6) (drill 0.8) (layers *.Cu *.Mask))
  (pad 3 thru_hole oval (at 0 5.08) (size 2.4 1.6) (drill 0.8) (layers *.Cu *.Mask))
  (pad 6 thru_hole oval (at 12.7 5.08) (size 2.4 1.6) (drill 0.8) (layers *.Cu *.Mask))
  (pad 2 thru_hole oval (at 0 2.54) (size 2.4 1.6) (drill 0.8) (layers *.Cu *.Mask))
  (pad 5 thru_hole oval (at 12.7 7.62) (size 2.4 1.6) (drill 0.8) (layers *.Cu *.Mask))
  (pad 1 thru_hole rect (at 0 0) (size 2.4 1.6) (drill 0.8) (layers *.Cu *.Mask))
  (model ${KISYS3DMOD}/Package_DIP.3dshapes/DIP-8_W10.16mm.wrl
    (at (xyz 0 0 0))
    (scale (xyz 1 1 1))
    (rotate (xyz 0 0 0))
  )
)
