EESchema Schematic File Version 4
EELAYER 30 0
EELAYER END
$Descr A4 11693 8268
encoding utf-8
Sheet 1 1
Title "Capteur Aquarium"
Date ""
Rev "1"
Comp "BTS SN IR"
Comment1 ""
Comment2 ""
Comment3 ""
Comment4 ""
$EndDescr
$Comp
L Aquarium2021-rescue:LM7805-RESCUE-kitest-kitest-rescue U2
U 1 1 59BCDF49
P 2600 2200
F 0 "U2" H 2750 2004 50  0000 C CNN
F 1 "LM7805" H 2600 2400 50  0000 C CNN
F 2 "Package_TO_SOT_THT:TO-220-3_Vertical" H 2600 2200 50  0000 C CNN
F 3 "" H 2600 2200 50  0000 C CNN
	1    2600 2200
	1    0    0    -1  
$EndComp
$Comp
L Aquarium2021-rescue:+5V-kitest-rescue #PWR01
U 1 1 59BCDFD0
P -123100 -96700
F 0 "#PWR01" H -123100 -96850 50  0001 C CNN
F 1 "+5V" H -123100 -96560 50  0000 C CNN
F 2 "" H -123100 -96700 50  0000 C CNN
F 3 "" H -123100 -96700 50  0000 C CNN
	1    -123100 -96700
	1    0    0    -1  
$EndComp
Wire Wire Line
	2200 2300 2050 2300
Connection ~ 2600 2450
$Comp
L Aquarium2021-rescue:GNDPWR-kitest-rescue #PWR02
U 1 1 59BCEBEE
P 2600 2650
F 0 "#PWR02" H 2600 2450 50  0001 C CNN
F 1 "GNDPWR" H 2600 2520 50  0000 C CNN
F 2 "" H 2600 2600 50  0000 C CNN
F 3 "" H 2600 2600 50  0000 C CNN
	1    2600 2650
	1    0    0    -1  
$EndComp
Wire Wire Line
	2600 2650 2600 2450
Text Label 6450 3650 0    60   ~ 0
VCC
Text Label 2900 2450 0    60   ~ 0
GND
$Comp
L Aquarium2021-rescue:+5V-kitest-rescue #PWR07
U 1 1 59D2B458
P 6450 3300
F 0 "#PWR07" H 6450 3150 50  0001 C CNN
F 1 "+5V" H 6450 3440 50  0000 C CNN
F 2 "" H 6450 3300 50  0000 C CNN
F 3 "" H 6450 3300 50  0000 C CNN
	1    6450 3300
	1    0    0    -1  
$EndComp
$Comp
L Aquarium2021-rescue:MCP9701-kitest-rescue U3
U 1 1 59D7D8DE
P 3650 1250
F 0 "U3" H 3800 1054 50  0000 C CNN
F 1 "MCP9701" H 3450 1450 50  0000 C CNN
F 2 "Package_TO_SOT_SMD:SOT-23" H 3650 1250 50  0001 C CNN
F 3 "" H 3650 1250 50  0000 C CNN
	1    3650 1250
	1    0    0    -1  
$EndComp
$Comp
L Aquarium2021-rescue:MCP9701-kitest-rescue U4
U 1 1 59D7DA9D
P 4500 1250
F 0 "U4" H 4650 1054 50  0000 C CNN
F 1 "MCP9701" H 4300 1450 50  0000 C CNN
F 2 "Connector_PinHeader_2.54mm:PinHeader_1x03_P2.54mm_Vertical" H 4500 1250 50  0000 C CNN
F 3 "" H 4500 1250 50  0000 C CNN
	1    4500 1250
	1    0    0    -1  
$EndComp
Wire Wire Line
	3650 1500 3650 1700
Wire Wire Line
	4500 1500 4500 1700
Wire Wire Line
	4500 1700 3650 1700
Connection ~ 3650 1700
Wire Wire Line
	4500 800  4500 950 
Wire Wire Line
	3100 800  3650 800 
Wire Wire Line
	3650 800  3650 950 
Connection ~ 3650 800 
Wire Wire Line
	4800 1200 5100 1200
Text Label 4950 1200 0    60   ~ 0
AN1
Wire Wire Line
	3950 1200 4200 1200
Text Label 4000 1200 0    60   ~ 0
AN0
$Comp
L Aquarium2021-rescue:CONN_01X02-kitest-rescue P_6
U 1 1 59D7E982
P 9800 3650
F 0 "P_6" H 9800 3800 50  0000 C CNN
F 1 "CONN_01X02" V 9900 3650 50  0000 C CNN
F 2 "Connector_Phoenix_MSTB:PhoenixContact_MSTBA_2,5_2-G_1x02_P5.00mm_Horizontal" H 9800 3650 50  0000 C CNN
F 3 "" H 9800 3650 50  0000 C CNN
	1    9800 3650
	1    0    0    -1  
$EndComp
$Comp
L Aquarium2021-rescue:R-kitest-rescue R4
U 1 1 59D7ED34
P 9550 3400
F 0 "R4" V 9630 3400 50  0000 C CNN
F 1 "10K" V 9550 3400 50  0000 C CNN
F 2 "Resistor_SMD:R_1206_3216Metric" V 9480 3400 50  0000 C CNN
F 3 "" H 9550 3400 50  0000 C CNN
	1    9550 3400
	1    0    0    -1  
$EndComp
$Comp
L Aquarium2021-rescue:R-kitest-rescue R5
U 1 1 59D7EDDF
P 9400 4600
F 0 "R5" V 9480 4600 50  0000 C CNN
F 1 "75K" V 9400 4600 50  0000 C CNN
F 2 "Resistor_SMD:R_1206_3216Metric" V 9330 4600 50  0000 C CNN
F 3 "" H 9400 4600 50  0000 C CNN
	1    9400 4600
	1    0    0    -1  
$EndComp
$Comp
L Aquarium2021-rescue:GNDPWR-kitest-rescue #PWR08
U 1 1 59D7F26D
P 9400 4950
F 0 "#PWR08" H 9400 4750 50  0001 C CNN
F 1 "GNDPWR" H 9400 4820 50  0000 C CNN
F 2 "" H 9400 4900 50  0000 C CNN
F 3 "" H 9400 4900 50  0000 C CNN
	1    9400 4950
	1    0    0    -1  
$EndComp
$Comp
L Aquarium2021-rescue:GNDPWR-kitest-rescue #PWR09
U 1 1 59D7F439
P 9500 3700
F 0 "#PWR09" H 9500 3500 50  0001 C CNN
F 1 "GNDPWR" H 9500 3570 50  0000 C CNN
F 2 "" H 9500 3650 50  0000 C CNN
F 3 "" H 9500 3650 50  0000 C CNN
	1    9500 3700
	1    0    0    -1  
$EndComp
Wire Wire Line
	9500 3700 9600 3700
Wire Wire Line
	8900 3600 9550 3600
Wire Wire Line
	9550 3600 9550 3550
Wire Wire Line
	9050 4450 9400 4450
Wire Wire Line
	9400 4750 9400 4850
$Comp
L Aquarium2021-rescue:+5V-kitest-rescue #PWR010
U 1 1 59D7F85F
P 9550 3150
F 0 "#PWR010" H 9550 3000 50  0001 C CNN
F 1 "+5V" H 9550 3290 50  0000 C CNN
F 2 "" H 9550 3150 50  0000 C CNN
F 3 "" H 9550 3150 50  0000 C CNN
	1    9550 3150
	1    0    0    -1  
$EndComp
Wire Wire Line
	9550 3250 9550 3150
Wire Wire Line
	9600 4350 9500 4350
$Comp
L Aquarium2021-rescue:C-kitest-rescue C1
U 1 1 59D7FAD4
P 9050 4650
F 0 "C1" H 9075 4750 50  0000 L CNN
F 1 "1nF" H 9075 4550 50  0000 L CNN
F 2 "Resistor_SMD:R_0805_2012Metric" H 9088 4500 50  0001 C CNN
F 3 "" H 9050 4650 50  0000 C CNN
	1    9050 4650
	1    0    0    -1  
$EndComp
Wire Wire Line
	9050 4850 9400 4850
Wire Wire Line
	9050 4850 9050 4800
Connection ~ 9400 4850
Wire Wire Line
	9050 4450 9050 4500
Connection ~ 9400 4450
Text Label 1700 850  0    60   ~ 0
AN8
Connection ~ 9550 3600
Text Label 9000 3600 0    60   ~ 0
AN10
$Comp
L Aquarium2021-rescue:GNDPWR-kitest-rescue #PWR012
U 1 1 59D8959E
P 5000 800
F 0 "#PWR012" H 5000 600 50  0001 C CNN
F 1 "GNDPWR" H 5000 670 50  0000 C CNN
F 2 "" H 5000 750 50  0000 C CNN
F 3 "" H 5000 750 50  0000 C CNN
	1    5000 800 
	1    0    0    -1  
$EndComp
$Comp
L Aquarium2021-rescue:CONN_01X03-kitest-rescue P77
U 1 1 59DD2009
P 1350 950
F 0 "P77" H 1350 1150 50  0000 C CNN
F 1 "CONN_01X03" V 1450 950 50  0000 C CNN
F 2 "Connector_PinHeader_2.54mm:PinHeader_1x03_P2.54mm_Vertical" H 1350 950 50  0000 C CNN
F 3 "" H 1350 950 50  0000 C CNN
	1    1350 950 
	-1   0    0    1   
$EndComp
$Comp
L Aquarium2021-rescue:GNDPWR-kitest-rescue #PWR013
U 1 1 59DD20B3
P 1550 1250
F 0 "#PWR013" H 1550 1050 50  0001 C CNN
F 1 "GNDPWR" H 1550 1120 50  0000 C CNN
F 2 "" H 1550 1200 50  0000 C CNN
F 3 "" H 1550 1200 50  0000 C CNN
	1    1550 1250
	1    0    0    -1  
$EndComp
$Comp
L Aquarium2021-rescue:+5V-kitest-rescue #PWR014
U 1 1 59DD20F9
P 2050 800
F 0 "#PWR014" H 2050 650 50  0001 C CNN
F 1 "+5V" H 2050 940 50  0000 C CNN
F 2 "" H 2050 800 50  0000 C CNN
F 3 "" H 2050 800 50  0000 C CNN
	1    2050 800 
	1    0    0    -1  
$EndComp
Wire Wire Line
	1550 1050 1550 1250
Wire Wire Line
	2050 800  2050 950 
Wire Wire Line
	2050 950  1550 950 
Wire Wire Line
	1550 850  1950 850 
Text Label 9050 4450 0    60   ~ 0
AN4
$Comp
L Aquarium2021-rescue:R-kitest-rescue R7
U 1 1 5A241941
P 9550 4650
F 0 "R7" V 9630 4650 50  0000 C CNN
F 1 "R" V 9550 4650 50  0000 C CNN
F 2 "Resistor_SMD:R_1206_3216Metric" V 9480 4650 50  0001 C CNN
F 3 "" H 9550 4650 50  0000 C CNN
	1    9550 4650
	1    0    0    -1  
$EndComp
Wire Wire Line
	9550 4500 9550 4450
Connection ~ 9550 4450
Wire Wire Line
	9550 4850 9550 4800
Wire Wire Line
	3650 800  4500 800 
Wire Wire Line
	9400 4850 9400 4950
Wire Wire Line
	9400 4850 9550 4850
Wire Wire Line
	9400 4450 9550 4450
Wire Wire Line
	9550 3600 9600 3600
Wire Wire Line
	2200 2150 2200 2300
Wire Wire Line
	9550 4450 9600 4450
Wire Wire Line
	6300 4650 6750 4650
Wire Wire Line
	6300 4750 6750 4750
Wire Wire Line
	6300 4850 6750 4850
Wire Wire Line
	6300 4950 6750 4950
Wire Wire Line
	6300 5050 6750 5050
Wire Wire Line
	6300 5150 6750 5150
Text Label 6450 4650 0    60   ~ 0
AN0
Text Label 6450 4750 0    60   ~ 0
AN1
Text Label 6500 4850 0    60   ~ 0
AN4
Text Label 6550 4950 0    60   ~ 0
AN8
Text Label 6500 5050 0    60   ~ 0
AN10
Text Label 6450 5150 0    60   ~ 0
AN11
Text Label 3600 4850 0    60   ~ 0
UART1_RX
$Comp
L Connector_Generic_MountingPin:Conn_01x04_MountingPin J1
U 1 1 61C2D888
P 7500 1500
F 0 "J1" H 7588 1414 50  0000 L CNN
F 1 "Conn_01x04_MountingPin" H 7588 1323 50  0000 L CNN
F 2 "Connector_JST:JST_PH_B4B-PH-K_1x04_P2.00mm_Vertical" H 7500 1500 50  0001 C CNN
F 3 "~" H 7500 1500 50  0001 C CNN
	1    7500 1500
	1    0    0    -1  
$EndComp
$Comp
L Connector_Generic_MountingPin:Conn_01x04_MountingPin J2
U 1 1 61C2E10A
P 7500 2200
F 0 "J2" H 7588 2114 50  0000 L CNN
F 1 "Conn_01x04_MountingPin" H 7588 2023 50  0000 L CNN
F 2 "Connector_JST:JST_PH_B4B-PH-K_1x04_P2.00mm_Vertical" H 7500 2200 50  0001 C CNN
F 3 "~" H 7500 2200 50  0001 C CNN
	1    7500 2200
	1    0    0    -1  
$EndComp
Wire Wire Line
	7050 800  7050 1400
Wire Wire Line
	7050 1400 7300 1400
Wire Wire Line
	5000 800  7050 800 
Wire Wire Line
	7300 2100 7050 2100
Wire Wire Line
	7050 2100 7050 1400
Connection ~ 7050 1400
Wire Wire Line
	7300 1500 6600 1500
Wire Wire Line
	6600 1500 6600 1450
Wire Wire Line
	7300 2200 6750 2200
Text Label 6700 1500 0    60   ~ 0
VCC
Text Label 6850 2200 0    60   ~ 0
VCC
Text Label 3650 4650 0    60   ~ 0
Chauffage
Wire Wire Line
	3600 4650 4300 4650
Text Label 3750 4550 0    60   ~ 0
Niv_EAU
Wire Wire Line
	3600 4550 4300 4550
Wire Wire Line
	7300 1700 6550 1700
Text Label 6550 1700 0    60   ~ 0
Chauffage
Wire Wire Line
	6700 2400 7300 2400
Text Label 6800 2400 0    60   ~ 0
Niv_EAU
Text Label 1750 3350 0    60   ~ 0
AN11
$Comp
L Aquarium2021-rescue:CONN_01X03-kitest-rescue P1
U 1 1 61C44C85
P 1400 3450
F 0 "P1" H 1400 3650 50  0000 C CNN
F 1 "CONN_01X03" V 1500 3450 50  0000 C CNN
F 2 "Connector_PinHeader_2.54mm:PinHeader_1x03_P2.54mm_Vertical" H 1400 3450 50  0001 C CNN
F 3 "" H 1400 3450 50  0000 C CNN
	1    1400 3450
	-1   0    0    1   
$EndComp
$Comp
L Aquarium2021-rescue:GNDPWR-kitest-rescue #PWR0101
U 1 1 61C44C8B
P 1600 3750
F 0 "#PWR0101" H 1600 3550 50  0001 C CNN
F 1 "GNDPWR" H 1600 3620 50  0000 C CNN
F 2 "" H 1600 3700 50  0000 C CNN
F 3 "" H 1600 3700 50  0000 C CNN
	1    1600 3750
	1    0    0    -1  
$EndComp
$Comp
L Aquarium2021-rescue:+5V-kitest-rescue #PWR0102
U 1 1 61C44C91
P 2100 3300
F 0 "#PWR0102" H 2100 3150 50  0001 C CNN
F 1 "+5V" H 2100 3440 50  0000 C CNN
F 2 "" H 2100 3300 50  0000 C CNN
F 3 "" H 2100 3300 50  0000 C CNN
	1    2100 3300
	1    0    0    -1  
$EndComp
Wire Wire Line
	1600 3550 1600 3750
Wire Wire Line
	2100 3300 2100 3450
Wire Wire Line
	2100 3450 1600 3450
Wire Wire Line
	1600 3350 2000 3350
$Comp
L power:GNDPWR #PWR0103
U 1 1 61C48EE1
P 6750 4350
F 0 "#PWR0103" H 6750 4150 50  0001 C CNN
F 1 "GNDPWR" H 6754 4196 50  0000 C CNN
F 2 "" H 6750 4300 50  0001 C CNN
F 3 "" H 6750 4300 50  0001 C CNN
	1    6750 4350
	1    0    0    -1  
$EndComp
Wire Wire Line
	6750 4350 6800 4350
Wire Wire Line
	2000 2400 2250 2400
Wire Wire Line
	2250 2400 2250 2450
Wire Wire Line
	2250 2450 2600 2450
$Comp
L Aquarium2021-rescue:CONN_01X02-kitest-rescue P3
U 1 1 59BCE97C
P 1800 2350
F 0 "P3" H 1800 2500 50  0000 C CNN
F 1 "CONN_01X02" V 1900 2350 50  0000 C CNN
F 2 "Connector_Phoenix_MSTB:PhoenixContact_MSTBA_2,5_2-G_1x02_P5.00mm_Horizontal" H 1800 2350 50  0000 C CNN
F 3 "" H 1800 2350 50  0000 C CNN
	1    1800 2350
	-1   0    0    -1  
$EndComp
Connection ~ 2000 2400
Wire Wire Line
	2000 2450 2000 2400
$Comp
L Aquarium2021-rescue:CONN_01X02-kitest-rescue P_7
U 1 1 59D7EA03
P 9800 4400
F 0 "P_7" H 9800 4550 50  0000 C CNN
F 1 "CONN_01X02" V 9900 4400 50  0000 C CNN
F 2 "Connector_PinHeader_2.54mm:PinHeader_1x02_P2.54mm_Vertical" H 9800 4400 50  0000 C CNN
F 3 "" H 9800 4400 50  0000 C CNN
	1    9800 4400
	1    0    0    -1  
$EndComp
$Comp
L Aquarium2021-rescue:Conn_l476_CN7-conn_l476_cn10 J4
U 1 1 61C4FD45
P 5850 3200
F 0 "J4" H 5850 3275 50  0000 C CNN
F 1 "Conn_l476_CN7" H 5850 3184 50  0000 C CNN
F 2 "Connector_PinHeader_2.54mm:PinHeader_2x19_P2.54mm_Vertical" H 5850 3200 50  0001 C CNN
F 3 "" H 5850 3200 50  0001 C CNN
	1    5850 3200
	1    0    0    -1  
$EndComp
Wire Wire Line
	6300 4350 6750 4350
Wire Wire Line
	6800 4350 6800 4250
Connection ~ 6750 4350
Wire Wire Line
	6300 4250 6800 4250
Wire Wire Line
	2600 2450 3650 2450
$Comp
L Connector_Generic:Conn_01x03 J5
U 1 1 61C948EE
P 6850 3650
F 0 "J5" H 6930 3692 50  0000 L CNN
F 1 "Conn_01x03" H 6930 3601 50  0000 L CNN
F 2 "Connector_PinHeader_2.54mm:PinHeader_1x03_P2.54mm_Vertical" H 6850 3650 50  0001 C CNN
F 3 "~" H 6850 3650 50  0001 C CNN
	1    6850 3650
	1    0    0    -1  
$EndComp
Wire Wire Line
	6300 4150 6650 4150
Wire Wire Line
	6650 4150 6650 3750
Wire Wire Line
	6650 3650 6450 3650
Wire Wire Line
	6450 3300 6450 3650
Wire Wire Line
	3000 2150 3300 2150
Text Label 3200 2150 0    50   ~ 0
AL5V
Wire Wire Line
	6650 3550 6550 3550
Wire Wire Line
	6550 3550 6550 3300
Wire Wire Line
	6550 3300 6900 3300
Text Label 6700 3300 0    50   ~ 0
AL5V
$Comp
L Aquarium2021-rescue:Conn_l476_CN10-conn_l476_cn10 J3
U 1 1 61C1E826
P 4750 4150
F 0 "J3" H 4750 5275 50  0000 C CNN
F 1 "Conn_l476_CN10" H 4750 5184 50  0000 C CNN
F 2 "Connector_PinHeader_2.54mm:PinHeader_2x19_P2.54mm_Vertical" H 4500 4150 50  0001 C CNN
F 3 "~" H 4500 4150 50  0001 C CNN
	1    4750 4150
	1    0    0    -1  
$EndComp
Text Label 3750 4250 0    50   ~ 0
UART1_TX
$Comp
L Aquarium2021-rescue:CONN_01X03-kitest-rescue P2
U 1 1 61D4200E
P 1450 4450
F 0 "P2" H 1367 4125 50  0000 C CNN
F 1 "CONN_01X03-kitest-rescue" H 1367 4216 50  0000 C CNN
F 2 "Connector_Molex:Molex_Nano-Fit_105309-xx03_1x03_P2.50mm_Vertical" H 1450 4450 50  0001 C CNN
F 3 "" H 1450 4450 50  0000 C CNN
	1    1450 4450
	-1   0    0    1   
$EndComp
$Comp
L power:GNDPWR #PWR0104
U 1 1 61D44FC8
P 1700 4850
F 0 "#PWR0104" H 1700 4650 50  0001 C CNN
F 1 "GNDPWR" H 1704 4696 50  0000 C CNN
F 2 "" H 1700 4800 50  0001 C CNN
F 3 "" H 1700 4800 50  0001 C CNN
	1    1700 4850
	1    0    0    -1  
$EndComp
Wire Wire Line
	1700 4850 1700 4550
Wire Wire Line
	1700 4550 1650 4550
Wire Wire Line
	2600 4250 4300 4250
Wire Wire Line
	2850 4850 2850 4450
Wire Wire Line
	2850 4850 4300 4850
Wire Wire Line
	1650 4450 2850 4450
Wire Wire Line
	2600 4250 2600 4350
Wire Wire Line
	2600 4350 1650 4350
$Comp
L power:+3.3V #PWR0105
U 1 1 61DD28F6
P 7300 3150
F 0 "#PWR0105" H 7300 3000 50  0001 C CNN
F 1 "+3.3V" H 7315 3323 50  0000 C CNN
F 2 "" H 7300 3150 50  0001 C CNN
F 3 "" H 7300 3150 50  0001 C CNN
	1    7300 3150
	1    0    0    -1  
$EndComp
$Comp
L power:+3.3V #PWR0106
U 1 1 61DDA7BF
P 3100 800
F 0 "#PWR0106" H 3100 650 50  0001 C CNN
F 1 "+3.3V" H 3115 973 50  0000 C CNN
F 2 "" H 3100 800 50  0001 C CNN
F 3 "" H 3100 800 50  0001 C CNN
	1    3100 800 
	1    0    0    -1  
$EndComp
$Comp
L power:+3.3V #PWR0107
U 1 1 61DE2EB6
P 9500 4350
F 0 "#PWR0107" H 9500 4200 50  0001 C CNN
F 1 "+3.3V" H 9515 4523 50  0000 C CNN
F 2 "" H 9500 4350 50  0001 C CNN
F 3 "" H 9500 4350 50  0001 C CNN
	1    9500 4350
	1    0    0    -1  
$EndComp
$Comp
L Regulator_Linear:LM78L05_TO92 U1
U 1 1 61DE680E
P 2600 1500
F 0 "U1" H 2600 1742 50  0000 C CNN
F 1 "LM78L33_TO92" H 2600 1651 50  0000 C CNN
F 2 "Package_TO_SOT_THT:TO-220-3_Vertical" H 2600 1725 50  0001 C CIN
F 3 "http://www.fairchildsemi.com/ds/LM/LM78L05A.pdf" H 2600 1450 50  0001 C CNN
	1    2600 1500
	1    0    0    -1  
$EndComp
Wire Wire Line
	3650 1800 2600 1800
Wire Wire Line
	3650 1700 3650 1800
Connection ~ 3650 1800
Wire Wire Line
	3650 1800 3650 2450
Wire Wire Line
	2050 2300 2050 1500
Wire Wire Line
	2050 1500 2300 1500
Connection ~ 2050 2300
Wire Wire Line
	2050 2300 2000 2300
Wire Wire Line
	2900 1500 3250 1500
Text Label 3050 1500 0    50   ~ 0
AL3.3V
$Comp
L Connector_Generic:Conn_01x03 J6
U 1 1 61DFC7DC
P 7700 3500
F 0 "J6" H 7780 3542 50  0000 L CNN
F 1 "Conn_01x03" H 7780 3451 50  0000 L CNN
F 2 "Connector_PinHeader_2.54mm:PinHeader_1x03_P2.54mm_Vertical" H 7700 3500 50  0001 C CNN
F 3 "~" H 7700 3500 50  0001 C CNN
	1    7700 3500
	1    0    0    -1  
$EndComp
Wire Wire Line
	7500 3500 7300 3500
Wire Wire Line
	7300 3150 7300 3500
Wire Wire Line
	7500 3400 7400 3400
Wire Wire Line
	7400 3400 7400 3150
Wire Wire Line
	7400 3150 7750 3150
Text Label 7550 3150 0    50   ~ 0
AL3.3V
Wire Wire Line
	6300 4050 7500 4050
Wire Wire Line
	7500 3600 7500 4050
$EndSCHEMATC
